[gd_scene load_steps=7 format=3 uid="uid://bxwlsmqn22s2c"]

[ext_resource type="PackedScene" uid="uid://rfwfkh2qgrhc" path="res://player.tscn" id="1_qxbvk"]

[sub_resource type="ProceduralSkyMaterial" id="ProceduralSkyMaterial_nfs5g"]
sky_horizon_color = Color(0.64625, 0.65575, 0.67075, 1)
ground_horizon_color = Color(0.64625, 0.65575, 0.67075, 1)

[sub_resource type="Sky" id="Sky_33jte"]
sky_material = SubResource("ProceduralSkyMaterial_nfs5g")

[sub_resource type="Environment" id="Environment_2nhhx"]
background_mode = 2
sky = SubResource("Sky_33jte")
tonemap_mode = 2
glow_enabled = true

[sub_resource type="PlaneMesh" id="PlaneMesh_r7inr"]
size = Vector2(10, 10)

[sub_resource type="ConcavePolygonShape3D" id="ConcavePolygonShape3D_vu20y"]
data = PackedVector3Array(5, 0, 5, -5, 0, 5, 5, 0, -5, -5, 0, 5, -5, 0, -5, 5, 0, -5)

[node name="Node3D" type="Node3D"]

[node name="WorldEnvironment" type="WorldEnvironment" parent="."]
environment = SubResource("Environment_2nhhx")

[node name="DirectionalLight3D" type="DirectionalLight3D" parent="."]
transform = Transform3D(-0.866025, -0.433013, 0.25, 0, 0.5, 0.866025, -0.5, 0.75, -0.433013, 0, 0, 0)
shadow_enabled = true

[node name="MeshInstance3D" type="MeshInstance3D" parent="."]
mesh = SubResource("PlaneMesh_r7inr")

[node name="StaticBody3D" type="StaticBody3D" parent="MeshInstance3D"]

[node name="CollisionShape3D" type="CollisionShape3D" parent="MeshInstance3D/StaticBody3D"]
shape = SubResource("ConcavePolygonShape3D_vu20y")

[node name="Player" parent="." instance=ExtResource("1_qxbvk")]
transform = Transform3D(1, 0, 0, 0, 1, 0, 0, 0, 1, 0, 2, -2)
linear_damp = 3.0
